Booking reference;Name of passenger;Flight code;Checkin
Z268M9;ANTOINE AUZIMOUR;EM4251;False
E129H9;GUSTAVE EIFFEL;AF3452;False
R814C3;ROBERT DE NIRO;EZ1233;True
M689N1;ALAIN DELON;EZ1452;False
R625L8;ALBERT REMY;AA3462;False
N781S9;ALBERT DELPY;ET4213;True
E125H7;ANDRE DUSSOLLIER;ET4213;False
A333E3;ANDRE MONTMORENCY;EM4251;False
L154P6;AMIDOU;EM4251;False
P928B1;ANDREX;AF3452;True
F157J7;ANDRE FALCON;EM4251;True
F677Z6;ANDRE VALMY;EZ1233;False
P326Q5;ARTUS DE PENGUERN;EZ1452;False
Z179L4;BERNARD ALANE;EM4251;False
T712U6;BERNARD BLIER;AF3452;False
C192C6;BERNARD DHERAN;AF2312;True
M930J4;BERNARD GIRAUDEAU;EM4251;False
L118X9;BERNARD LE COQ;EZ1233;True
L235P3;BERNARD-PIERRE DONNADIEU;EM4251;True
S404H7;BOURVIL;EM4251;True
K750L6;BRUNO CREMER;AA3462;True
G548M6;CARETTE;AF3452;False
H577X4;CHARLES AZNAVOUR;AF2312;True
X330D4;CHARLES BOYER;AA3462;True
M281X3;CHARLES GERARD;AF2312;True
M231U2;CHARLES VANEL;AA3462;True
I855Z5;CHARPIN;ET4213;True
U647F1;CHRISTIAN BARBIER;AF2312;False
X499E3;CHRISTIAN MARIN;ET4213;True
J475U4;CLAUDE BRASSEUR;AA3462;False
G426O7;CLAUDE LAYDU;ET4213;False
